﻿{
  "profiles": {
    "ToDoEventSourcing.ProjectionService": {
      "commandName": "Project",
      "dotnetRunMessages": true,
      "environmentVariables": {
        "DOTNET_ENVIRONMENT": "Development"
      }
    }
  }
}
